<?xml version="1.0" encoding="UTF-8" standalone="no"?>
<svg
   xmlns:dc="http://purl.org/dc/elements/1.1/"
   xmlns:cc="http://creativecommons.org/ns#"
   xmlns:rdf="http://www.w3.org/1999/02/22-rdf-syntax-ns#"
   xmlns:svg="http://www.w3.org/2000/svg"
   xmlns="http://www.w3.org/2000/svg"
   xmlns:sodipodi="http://sodipodi.sourceforge.net/DTD/sodipodi-0.dtd"
   xmlns:inkscape="http://www.inkscape.org/namespaces/inkscape"
   inkscape:version="1.0 (4035a4fb49, 2020-05-01)"
   sodipodi:docname="RVB-PDL_Institutionnel.svg"
   viewBox="0 0 563.38666 159.81332"
   height="159.81332"
   width="563.38666"
   xml:space="preserve"
   id="svg2"
   version="1.1"><metadata
     id="metadata8"><rdf:RDF><cc:Work
         rdf:about=""><dc:format>image/svg+xml</dc:format><dc:type
           rdf:resource="http://purl.org/dc/dcmitype/StillImage" /><dc:title></dc:title></cc:Work></rdf:RDF></metadata><defs
     id="defs6" /><sodipodi:namedview
     inkscape:current-layer="g10"
     inkscape:window-maximized="1"
     inkscape:window-y="0"
     inkscape:window-x="0"
     inkscape:cy="113.85458"
     inkscape:cx="375.62859"
     inkscape:zoom="1.4142136"
     showgrid="false"
     id="namedview4"
     inkscape:window-height="1021"
     inkscape:window-width="1920"
     inkscape:pageshadow="2"
     inkscape:pageopacity="0"
     guidetolerance="10"
     gridtolerance="10"
     objecttolerance="10"
     borderopacity="1"
     bordercolor="#666666"
     pagecolor="#ffffff" /><g
     transform="matrix(1.3333333,0,0,-1.3333333,0,159.81333)"
     inkscape:label="ink_ext_XXXXXX"
     inkscape:groupmode="layer"
     id="g10"><g
       transform="scale(0.1)"
       id="g12"><path
         id="path14"
         style="fill:#1474bf;fill-opacity:1;fill-rule:nonzero;stroke:none"
         d="m 1602.39,743.926 c 0.43,1.219 0.85,2.082 0.85,3.301 0,3.339 -2.93,6.257 -7.07,6.257 h -45.66 c -3.74,0 -6.66,-3.328 -7.89,-6.668 l -49.83,-123.711 c -2.93,-7.07 -5.41,-8.332 -7.48,-8.332 -1.66,0 -4.16,1.262 -7.05,8.332 l -49.82,123.711 c -1.25,3.34 -4.15,6.668 -7.89,6.668 h -46.09 c -4.15,0 -6.67,-2.918 -6.67,-6.257 0,-0.809 0.44,-2.082 0.85,-3.301 l 42.25,-97.098 c 0.03,-0.078 0.05,-0.14 0.07,-0.219 l 45.71,-105.035 V 453.27 c 0,-4.547 3.31,-8.29 7.89,-8.29 h 41.5 c 4.59,0 7.89,3.743 7.89,8.29 v 88.312 l 26.75,61.477 61.69,140.867" /><path
         id="path16"
         style="fill:#1474bf;fill-opacity:1;fill-rule:nonzero;stroke:none"
         d="m 1009.9,559.98 c -10.779,0 -27.4,1.262 -36.97,1.668 V 453.242 c 0,-4.558 -3.379,-8.25 -7.903,-8.25 h -41.531 c -4.551,0 -8.254,3.692 -8.254,8.25 v 285.723 c 0,8.269 4.942,11.203 13.274,12.453 21.601,3.309 51.062,5.41 81.384,5.41 63.95,0 119.57,-22.461 119.57,-95.937 v -3.75 c 0,-73.477 -55.62,-97.161 -119.57,-97.161 z m 62.24,100.911 c 0,34.902 -20.75,48.144 -62.24,48.144 -8.72,0 -29.47,-0.781 -36.97,-1.644 v -98.836 c 6.648,-0.403 29.92,-1.242 36.97,-1.242 44.83,0 62.24,16.566 62.24,49.828 v 3.75" /><path
         id="path18"
         style="fill:#1474bf;fill-opacity:1;fill-rule:nonzero;stroke:none"
         d="m 1374.02,444.992 h -44.06 c -3.66,0 -7.01,3.262 -7.86,7 l -19.07,78.899 h -95.52 l -19.14,-78.899 c -0.82,-3.738 -4.13,-7 -7.87,-7 h -43.99 c -4.2,0 -7.54,2.867 -7.54,7 0,0.43 0.42,1.25 0.42,2.082 l 68.12,260.406 c 10,38.579 39.89,42.348 57.76,42.348 17.86,0 47.76,-3.769 57.76,-42.348 l 68.07,-260.406 c 0,-0.832 0.39,-1.652 0.39,-2.082 0,-4.133 -3.35,-7 -7.47,-7 z m -112.16,256.617 c -1.22,4.954 -2.47,6.645 -6.59,6.645 -4.2,0 -5.45,-1.691 -6.66,-6.645 l -29.92,-123.394 h 73.09 l -29.92,123.394" /><path
         id="path20"
         style="fill:#1474bf;fill-opacity:1;fill-rule:nonzero;stroke:none"
         d="m 1716.86,441.621 c -31.14,0 -53.56,2.899 -73.48,7.488 -4.13,0.805 -7.91,3.735 -7.91,8.313 v 29.875 c 0,4.57 3.78,7.918 7.91,7.918 0.39,0 0.39,0 0.81,0 16.66,-2.098 58.18,-4.18 73.52,-4.18 36.98,0 48.15,13.293 48.15,37.363 0,16.211 -7.9,24.524 -35.27,40.75 l -54.83,32.778 c -38.65,22.84 -48.97,46.929 -48.97,75.996 0,45.703 26.55,78.906 103.8,78.906 27.37,0 65.59,-4.183 79.68,-7.492 4.2,-0.801 7.51,-3.738 7.51,-7.879 v -30.742 c 0,-4.152 -2.92,-7.485 -7.04,-7.485 -0.47,0 -0.47,0 -0.86,0 -27.36,2.532 -54.8,4.161 -81.77,4.161 -30.75,0 -43.64,-10.782 -43.64,-29.469 0,-13.695 7.09,-22.012 34.09,-36.965 l 49.83,-27.82 c 45.65,-25.344 57.68,-51.895 57.68,-84.739 0,-41.964 -26.19,-86.777 -109.21,-86.777" /><path
         id="path22"
         style="fill:#1474bf;fill-opacity:1;fill-rule:nonzero;stroke:none"
         d="m 2072.36,441.621 c -29.49,0 -69.35,2.899 -81.84,4.981 -7.04,1.257 -10.75,4.582 -10.75,12.878 v 279.485 c 0,8.269 3.71,11.633 10.75,12.844 12.49,2.117 52.35,5.019 81.84,5.019 83.03,0 130.4,-44.875 130.4,-127.062 v -61.082 c 0,-82.25 -47.37,-127.063 -130.4,-127.063 z m 73.07,188.145 c 0,62.254 -31.57,78.488 -73.07,78.488 -15.37,0 -26.19,-0.863 -34.9,-1.281 V 491.457 c 8.71,-0.422 19.53,-1.242 34.9,-1.242 41.5,0 73.07,16.172 73.07,78.469 v 61.082" /><path
         id="path24"
         style="fill:#1474bf;fill-opacity:1;fill-rule:nonzero;stroke:none"
         d="m 2424.87,447.453 c -13.28,-2.062 -29.48,-5.832 -78.87,-5.832 -54,0 -95.94,14.543 -95.94,85.106 v 144.984 c 0,70.562 41.94,85.117 95.94,85.117 49.39,0 65.59,-3.769 78.87,-5.844 6.27,-0.816 8.32,-2.886 8.32,-8.711 v -26.55 c 0,-4.59 -3.77,-8.332 -8.32,-8.332 h -84.73 c -24.06,0 -32.73,-8.317 -32.73,-35.68 v -44.883 h 112.48 c 4.59,0 8.32,-3.691 8.32,-8.32 v -29.906 c 0,-4.528 -3.73,-8.278 -8.32,-8.278 h -112.48 v -53.597 c 0,-27.36 8.67,-35.692 32.73,-35.692 h 84.73 c 4.55,0 8.32,-3.738 8.32,-8.289 v -26.582 c 0,-5.805 -2.05,-7.91 -8.32,-8.711" /><path
         id="path26"
         style="fill:#1474bf;fill-opacity:1;fill-rule:nonzero;stroke:none"
         d="m 2759.59,447.453 c -12.5,-2.933 -48.57,-5.832 -70.56,-5.832 -54.07,0 -95.94,14.543 -95.94,85.106 v 218.429 c 0,4.61 3.65,8.328 8.24,8.328 h 41.12 c 4.59,0 8.28,-3.718 8.28,-8.328 V 526.727 c 0,-27.36 8.38,-35.692 32.5,-35.692 h 76.36 c 4.55,0 8.3,-3.738 8.3,-8.289 v -26.582 c 0,-5.805 -2.07,-7.48 -8.3,-8.711" /><path
         id="path28"
         style="fill:#1474bf;fill-opacity:1;fill-rule:nonzero;stroke:none"
         d="m 3029.13,444.992 h -44.03 c -3.77,0 -7.07,3.262 -7.89,7 l -19.08,78.899 h -95.55 l -19.14,-78.899 c -0.78,-3.738 -4.14,-7 -7.87,-7 h -43.98 c -4.2,0 -7.48,2.867 -7.48,7 0,0.43 0.39,1.25 0.39,2.082 l 68.08,260.406 c 10,38.579 39.88,42.348 57.76,42.348 17.91,0 47.79,-3.769 57.71,-42.348 l 68.13,-260.406 c 0,-0.832 0.39,-1.652 0.39,-2.082 0,-4.133 -3.32,-7 -7.44,-7 z M 2917,701.609 c -1.29,4.954 -2.5,6.645 -6.66,6.645 -4.16,0 -5.41,-1.691 -6.59,-6.645 l -29.92,-123.394 h 73.05 L 2917,701.609" /><path
         id="path30"
         style="fill:#1474bf;fill-opacity:1;fill-rule:nonzero;stroke:none"
         d="m 3345.94,447.453 c -12.44,-2.933 -48.57,-5.832 -70.53,-5.832 -54.02,0 -96.01,14.543 -96.01,85.106 v 218.429 c 0,4.61 3.75,8.328 8.34,8.328 h 41.09 c 4.59,0 8.34,-3.718 8.34,-8.328 V 526.727 c 0,-27.36 8.32,-35.692 32.38,-35.692 h 76.39 c 4.61,0 8.3,-3.738 8.3,-8.289 v -26.582 c 0,-5.805 -2.07,-7.48 -8.3,-8.711" /><path
         id="path32"
         style="fill:#1474bf;fill-opacity:1;fill-rule:nonzero;stroke:none"
         d="m 3489.14,441.621 c -68.49,0 -118.35,38.203 -118.35,129.551 v 56.086 c 0,91.344 49.86,129.57 118.35,129.57 68.54,0 118.36,-38.226 118.36,-129.57 v -56.086 c 0,-91.348 -49.82,-129.551 -118.36,-129.551 z m 60.22,185.637 c 0,54.801 -19.53,79.305 -60.22,79.305 -40.7,0 -60.21,-24.504 -60.21,-79.305 v -56.086 c 0,-54.832 19.51,-79.305 60.21,-79.305 40.69,0 60.22,24.473 60.22,79.305 v 56.086" /><path
         id="path34"
         style="fill:#1474bf;fill-opacity:1;fill-rule:nonzero;stroke:none"
         d="m 3710.92,444.992 h -41.09 c -4.59,0 -8.3,3.692 -8.3,8.25 v 292.356 c 0,4.57 3.71,7.886 8.3,7.886 h 41.09 c 4.55,0 8.3,-3.316 8.3,-7.886 V 453.242 c 0,-4.558 -3.75,-8.25 -8.3,-8.25" /><path
         id="path36"
         style="fill:#1474bf;fill-opacity:1;fill-rule:nonzero;stroke:none"
         d="m 4000.77,444.992 h -50.71 c -4.51,0 -6.23,4.117 -8.26,8.25 L 3882,564.133 h -5.8 c -10.86,0 -27.45,1.238 -37.02,1.668 V 453.242 c 0,-4.558 -3.28,-8.25 -7.91,-8.25 h -41.44 c -4.59,0 -8.3,3.692 -8.3,8.25 v 285.723 c 0,8.269 4.98,11.203 13.28,12.453 21.6,3.309 51.05,5.41 81.39,5.41 63.98,0 119.53,-22.863 119.53,-93.879 v -3.738 c 0,-44.055 -21.96,-71.418 -56.06,-84.691 l 65.28,-121.278 c 0.78,-1.25 0.78,-2.488 0.78,-3.328 0,-2.871 -1.68,-4.922 -4.96,-4.922 z m -62.27,217.957 c 0,31.211 -20.82,44.442 -62.3,44.442 -8.74,0 -29.52,-0.828 -37.02,-1.629 v -93.465 c 6.68,-0.41 29.93,-1.274 37.02,-1.274 42.77,0 62.3,11.661 62.3,48.188 v 3.738" /><path
         id="path38"
         style="fill:#1474bf;fill-opacity:1;fill-rule:nonzero;stroke:none"
         d="m 4217.07,447.453 c -13.32,-2.062 -29.51,-5.832 -78.9,-5.832 -54.03,0 -95.98,14.543 -95.98,85.106 v 144.984 c 0,70.562 41.95,85.117 95.98,85.117 49.39,0 65.58,-3.769 78.9,-5.844 6.23,-0.816 8.29,-2.886 8.29,-8.711 v -26.55 c 0,-4.59 -3.7,-8.332 -8.29,-8.332 h -84.76 c -24.06,0 -32.77,-8.317 -32.77,-35.68 v -44.883 h 112.51 c 4.59,0 8.33,-3.691 8.33,-8.32 v -29.906 c 0,-4.528 -3.74,-8.278 -8.33,-8.278 h -112.51 v -53.597 c 0,-27.36 8.71,-35.692 32.77,-35.692 h 84.76 c 4.59,0 8.29,-3.738 8.29,-8.289 v -26.582 c 0,-5.805 -2.06,-7.91 -8.29,-8.711" /><path
         id="path40"
         style="fill:#9a3797;fill-opacity:1;fill-rule:nonzero;stroke:none"
         d="m 1011.52,873.652 h -22.309 c -2.016,0 -2.707,1.848 -3.664,3.661 l -26.336,48.828 h -2.582 c -4.746,0 -12.039,0.57 -16.277,0.746 v -49.574 c 0,-2.028 -1.465,-3.661 -3.457,-3.661 h -18.282 c -2.011,0 -3.672,1.633 -3.672,3.661 v 125.867 c 0,3.65 2.207,4.95 5.84,5.5 9.532,1.44 22.5,2.37 35.848,2.37 28.207,0 52.731,-10.07 52.731,-41.37 v -1.621 c 0,-19.426 -9.723,-31.496 -24.723,-37.329 l 28.723,-53.417 c 0.37,-0.555 0.37,-1.102 0.37,-1.465 0,-1.278 -0.74,-2.196 -2.21,-2.196 z m -27.438,96.028 c 0,13.738 -9.16,19.586 -27.453,19.586 -3.816,0 -12.969,-0.348 -16.277,-0.731 v -41.152 c 2.929,-0.195 13.203,-0.535 16.277,-0.535 18.859,0 27.453,5.086 27.453,21.211 v 1.621" /><path
         id="path42"
         style="fill:#9a3797;fill-opacity:1;fill-rule:nonzero;stroke:none"
         d="m 1112.84,916.816 h -59.65 v -0.539 c 0,-10.625 4.42,-23.23 21.99,-23.23 13.32,0 25.95,1.086 33.64,1.805 0.17,0 0.37,0 0.56,0 1.82,0 3.3,-0.918 3.3,-2.704 v -12.097 c 0,-2.953 -0.55,-4.203 -3.86,-4.766 -11.89,-2.168 -19.05,-3.097 -35.5,-3.097 -18.31,0 -44.29,9.894 -44.29,45.929 v 13.516 c 0,28.562 15.95,46.512 43.94,46.512 28.16,0 43.53,-19.227 43.53,-46.512 v -10.227 c 0,-2.922 -1.1,-4.59 -3.66,-4.59 z m -20.66,17.93 c 0,14.277 -7.84,22.488 -19.21,22.488 -11.38,0 -19.59,-8.035 -19.59,-22.488 v -0.711 h 38.8 z m 10.8,78.654 -21.6,-22.685 c -1.48,-1.641 -2.2,-2.356 -4.38,-2.356 h -15.73 c -1.11,0 -1.67,0.559 -1.67,1.301 0,0.535 0.21,1.278 0.75,1.797 l 17.35,21.943 c 1.66,2.02 2.4,2.77 4.78,2.77 h 19.2 c 1.3,0 2.05,-0.55 2.05,-1.28 0,-0.37 -0.21,-0.93 -0.75,-1.49" /><path
         id="path44"
         style="fill:#9a3797;fill-opacity:1;fill-rule:nonzero;stroke:none"
         d="m 1227.74,960.195 -6.04,-2.422 c 2.91,-4.199 4.55,-8.203 4.55,-14.609 v -1.297 c 0,-22.844 -15.72,-33.273 -43.34,-33.273 -9.69,0 -16.3,1.64 -19.93,3.094 -2.23,-1.454 -3.1,-3.094 -3.1,-4.735 0,-3.66 2,-5.117 6.19,-6.043 l 21.61,-5.129 c 24.87,-5.867 40.95,-9.679 40.95,-29.246 v -1.301 c 0,-18.671 -13.71,-28.699 -44.81,-28.699 -29.61,0 -45.36,11.149 -45.36,30.352 v 1.636 c 0,7.512 3.49,14.825 9.3,20.11 -5.06,3.859 -8.2,10.246 -8.2,16.867 v 0.152 c 0,5.696 2.39,11.379 7.32,14.825 -5.5,5.664 -7.52,12.277 -7.52,21.39 v 1.297 c 0,18.27 11.91,33.664 43.55,33.664 h 42.81 c 2.74,0 4.92,-2.199 4.92,-4.926 v -7.703 c 0,-2.765 -0.72,-3.113 -2.9,-4.004 z m -23.23,-93.66 c 0,3.981 -2.38,6.387 -21.6,10.957 l -16.3,3.848 c -2.7,-3.848 -4.56,-6.235 -4.56,-12.817 v -1.636 c 0,-7.512 4.56,-12.102 21.77,-12.102 17.56,0 20.69,3.867 20.69,10.449 z m -2.03,76.278 c 0,8.769 -3.85,15.527 -19.57,15.527 -15.53,0 -19.77,-6.934 -19.77,-15.527 v -1.473 c 0,-6.77 2.76,-14.453 19.77,-14.453 15.2,0 19.57,5.301 19.57,14.453 v 1.473" /><path
         id="path46"
         style="fill:#9a3797;fill-opacity:1;fill-rule:nonzero;stroke:none"
         d="m 1272.91,990.547 h -17.73 c -2.05,0 -3.84,1.66 -3.84,3.703 v 16.07 c 0,2 1.79,3.64 3.84,3.64 h 17.73 c 2.02,0 3.66,-1.64 3.66,-3.64 v -16.07 c 0,-2.043 -1.64,-3.703 -3.66,-3.703 z m -0.53,-116.895 h -16.84 c -2,0 -3.66,1.848 -3.66,3.84 v 95.672 c 0,2.012 1.66,3.664 3.66,3.664 h 16.84 c 1.98,0 3.62,-1.652 3.62,-3.664 v -95.672 c 0,-1.992 -1.64,-3.84 -3.62,-3.84" /><path
         id="path48"
         style="fill:#9a3797;fill-opacity:1;fill-rule:nonzero;stroke:none"
         d="m 1344.65,872.188 c -28.75,0 -43.73,19.394 -43.73,45.558 v 14.813 c 0,26.164 14.98,45.586 43.73,45.586 28.72,0 43.7,-19.422 43.7,-45.586 v -14.813 c 0,-26.164 -14.98,-45.558 -43.7,-45.558 z m 19.57,60.371 c 0,15 -6.76,24.675 -19.57,24.675 -12.81,0 -19.59,-9.675 -19.59,-24.675 v -14.813 c 0,-14.992 6.78,-24.699 19.59,-24.699 12.81,0 19.57,9.707 19.57,24.699 v 14.813" /><path
         id="path50"
         style="fill:#9a3797;fill-opacity:1;fill-rule:nonzero;stroke:none"
         d="m 1493.54,873.652 h -16.81 c -2.05,0 -3.68,1.848 -3.68,3.84 v 59.649 c 0,15.898 -1.47,20.457 -15.56,20.457 -6.19,0 -12.95,-2.532 -20.65,-6.582 v -73.524 c 0,-1.992 -1.63,-3.84 -3.68,-3.84 h -16.8 c -2.04,0 -3.66,1.848 -3.66,3.84 v 95.672 c 0,2.012 1.62,3.664 3.66,3.664 h 15.91 c 2.02,0 3.64,-1.652 3.64,-3.664 v -3.828 c 10.62,6.766 17.57,8.809 29.66,8.809 26.35,0 31.66,-17.774 31.66,-41.004 v -59.649 c 0,-1.992 -1.68,-3.84 -3.69,-3.84" /><path
         id="path52"
         style="fill:#0cafcf;fill-opacity:1;fill-rule:nonzero;stroke:none"
         d="m 435.945,599.426 c 0,231.238 -89.695,441.404 -236.289,599.134 H 0.195313 C 179.941,1060.07 295.898,843.293 295.898,599.426 295.898,355.051 179.941,138.484 0,0 H 199.656 C 346.25,157.637 435.945,367.969 435.945,599.426" /><path
         id="path54"
         style="fill:#8fd029;fill-opacity:1;fill-rule:nonzero;stroke:none"
         d="m 537.09,596.395 c 0,223.91 -71.25,431.725 -192.492,602.165 H 620.301 C 721.445,1020.52 779.199,814.973 779.199,596.395 779.199,379.922 722.703,176.516 623.918,0 H 348.367 C 467.336,169.219 537.09,374.57 537.09,596.395" /></g></g></svg>
